{
  "data": [
    {
      "id": 1,
      "name": "Admin Sistem",
      "assigned_to": [
        "AdminSistem"
      ],
      "created_date": "14 Apr 2021, 8:43 PM"
    },
    {
      "id": 2,
      "name": "Sub. Koordinator Bidang Industri",
      "assigned_to": [
        "Koordinator"
      ],
      "created_date": "16 Sep 2021, 5:20 PM"
    },
    {
      "id": 3,
      "name": "Sub. Koordinator Bidang Perdagangan",
      "assigned_to": [
        "Koordinator"
      ],
      "created_date": "14 Oct 2021, 10:20 AM"
    },
    {
      "id": 4,
      "name": "Kepala Bidang Pengawasan",
      "assigned_to": [
        "Head"
      ],
      "created_date": "14 May 2021, 12:10 PM"
    },
    {
      "id": 5,
      "name": "Staff Pengawasan Bidang Industri",
      "assigned_to": [
        "Staff"
      ],
      "created_date": "23 Aug 2021, 2:00 PM"
    },
    {
      "id": 6,
      "name": "Staff Pengawasan Bidang Perdagangan",
      "assigned_to": [
        "Staff"
      ],
      "created_date": "15 Apr 2021, 11:30 AM"
    }
  ]
}